{
    "datasets": {
        "stores4": {
            "default": true,
            "topo": [
                "stores4/data/topo/stores4.yaml"
            ],
            "name": "stores4"
        }
    },
    "jsplasma-apps": {},
    "settings": "sluice-settings.yaml",
    "share": "share",
    "etc": "etc",
    "daemons": {
        "weather": {
            "default": true,
            "name": "weather",
            "script": "mesonetd"
        },
        "static_images": {
            "default": true,
            "name": "StaticImages",
            "script": "staticimgd"
        },
        "zippy": {
            "default": true,
            "name": "Zippy",
            "script": "zippyc"
        },
        "heatmap": {
            "default": true,
            "name": "Heatmap",
            "script": "heatmapd"
        }
    },
    "id": "tableau",
    "name": "Tableau"
}