{
    "acts": [
        {
            "fluoros": [
                {
                    "attributes": [
                        {
                            "contents": [
                                {
                                    "display-text": "25%", 
                                    "name": "0.25", 
                                    "selected": 0
                                }, 
                                {
                                    "display-text": "50%", 
                                    "name": "0.5", 
                                    "selected": 0
                                }, 
                                {
                                    "display-text": "75%", 
                                    "name": "0.75", 
                                    "selected": 0
                                }, 
                                {
                                    "display-text": "100%", 
                                    "name": "1.00", 
                                    "selected": 1
                                }
                            ], 
                            "name": "opacity", 
                            "selection-type": "exclusive"
                        }, 
                        {
                            "contents": [
                                {
                                    "display-text": "Enable", 
                                    "name": 1, 
                                    "selected": 1
                                }, 
                                {
                                    "display-text": "Disable", 
                                    "name": 0, 
                                    "selected": 0
                                }
                            ], 
                            "name": "enable-menu", 
                            "selection-type": "exclusive"
                        }, 
                        {
                            "contents": [
                                {
                                    "display-text": "0", 
                                    "name": "0", 
                                    "selected": 1
                                }, 
                                {
                                    "display-text": "1", 
                                    "name": "1", 
                                    "selected": 1
                                }, 
                                {
                                    "display-text": "2", 
                                    "name": "2", 
                                    "selected": 1
                                }, 
                                {
                                    "display-text": "3", 
                                    "name": "3", 
                                    "selected": 1
                                }
                            ], 
                            "name": "enabled-kinds", 
                            "selection-type": "inclusive"
                        }
                    ], 
                    "bounds": {
                        "bl": [
                            22.416060747452942, 
                            -129.27174894978236
                        ], 
                        "tr": [
                            50.96420551802342, 
                            -62.71665105021759
                        ]
                    }, 
                    "default_shaders": {
                        "path": {
                            "fragment": "ribbons.frag", 
                            "vertex": "marching_ribbons.vert"
                        }, 
                        "point": {
                            "fragment": "network.frag", 
                            "vertex": "network.vert"
                        }
                    }, 
                    "display-text": "{ dummy-9be464bbc0414fc1ada48299d4b74b44 }", 
                    "hover": {
                        "glyph": "sluice/sharkmouth.png"
                    }, 
                    "icon": "sluice/icons/network.png", 
                    "id": "network|dummy-9be464bbc0414fc1ada48299d4b74b44|1", 
                    "kinds": [
                        "0", 
                        "1", 
                        "2", 
                        "3"
                    ], 
                    "name": "dummy-9be464bbc0414fc1ada48299d4b74b44", 
                    "origname": "dummy-9be464bbc0414fc1ada48299d4b74b44", 
                    "pigments": [
                        {
                            "color": {
                                "type": "SoftColor", 
                                "value": [
                                    0.09499423298731252, 
                                    0.4651441753171857, 
                                    0.8352941176470589, 
                                    1
                                ]
                            }, 
                            "icon": "sluice/symbols/circle.png", 
                            "inculcators": [
                                {
                                    "kinds": [
                                        "0"
                                    ], 
                                    "name": "dummy-9be464bbc0414fc1ada48299d4b74b44-0-point-pigment-inc", 
                                    "pigment": "dummy-9be464bbc0414fc1ada48299d4b74b44-0-point-pigment"
                                }
                            ], 
                            "name": "dummy-9be464bbc0414fc1ada48299d4b74b44-0-point-pigment", 
                            "size": {
                                "type": "SoftFloat", 
                                "value": 1
                            }, 
                            "type": "point"
                        }, 
                        {
                            "color": {
                                "type": "SoftColor", 
                                "value": [
                                    0.09411764705882353, 
                                    0.4666666666666667, 
                                    0.8352941176470589, 
                                    1
                                ]
                            }, 
                            "icon": "sluice/symbols/circle.png", 
                            "inculcators": [
                                {
                                    "kinds": [
                                        "1"
                                    ], 
                                    "name": "dummy-9be464bbc0414fc1ada48299d4b74b44-1-point-pigment-inc", 
                                    "pigment": "dummy-9be464bbc0414fc1ada48299d4b74b44-1-point-pigment"
                                }
                            ], 
                            "name": "dummy-9be464bbc0414fc1ada48299d4b74b44-1-point-pigment", 
                            "size": {
                                "type": "SoftFloat", 
                                "value": 2
                            }, 
                            "type": "point"
                        }, 
                        {
                            "color": {
                                "type": "SoftColor", 
                                "value": [
                                    0.8823529411764706, 
                                    0.5507497116493656, 
                                    0.017301038062283676, 
                                    1
                                ]
                            }, 
                            "icon": "sluice/symbols/circle.png", 
                            "inculcators": [
                                {
                                    "kinds": [
                                        "2"
                                    ], 
                                    "name": "dummy-9be464bbc0414fc1ada48299d4b74b44-2-point-pigment-inc", 
                                    "pigment": "dummy-9be464bbc0414fc1ada48299d4b74b44-2-point-pigment"
                                }
                            ], 
                            "name": "dummy-9be464bbc0414fc1ada48299d4b74b44-2-point-pigment", 
                            "size": {
                                "type": "SoftFloat", 
                                "value": 1
                            }, 
                            "type": "point"
                        }, 
                        {
                            "color": {
                                "type": "SoftColor", 
                                "value": [
                                    0.8823529411764706, 
                                    0.5490196078431373, 
                                    0.01568627450980392, 
                                    1
                                ]
                            }, 
                            "icon": "sluice/symbols/circle.png", 
                            "inculcators": [
                                {
                                    "kinds": [
                                        "3"
                                    ], 
                                    "name": "dummy-9be464bbc0414fc1ada48299d4b74b44-3-point-pigment-inc", 
                                    "pigment": "dummy-9be464bbc0414fc1ada48299d4b74b44-3-point-pigment"
                                }
                            ], 
                            "name": "dummy-9be464bbc0414fc1ada48299d4b74b44-3-point-pigment", 
                            "size": {
                                "type": "SoftFloat", 
                                "value": 2
                            }, 
                            "type": "point"
                        }
                    ], 
                    "type": "network"
                }, 
                {
                    "bl": [
                        20.15656821717119, 
                        -140.25514436735344
                    ], 
                    "id": "undefined|Stores|1", 
                    "name": "Stores", 
                    "tr": [
                        55.221496320070266, 
                        -54.09900664211401
                    ]
                }
            ], 
            "map": {
                "alpha-per-second": 1, 
                "background": "mapquest"
            }, 
            "name": "National", 
            "scenes": [
                {
                    "fluoros": [
                        {
                            "bl": [
                                23, 
                                -130
                            ], 
                            "id": "undefined|Weather|1", 
                            "name": "Weather", 
                            "tr": [
                                50, 
                                -60
                            ]
                        }
                    ], 
                    "name": "Weather"
                }, 
                {
                    "fluoros": [
                        {
                            "bl": [
                                20.15656821717119, 
                                -140.2551443673534
                            ], 
                            "id": "undefined|Stores|1", 
                            "tr": [
                                55.221496320070266, 
                                -54.099006642114
                            ]
                        }, 
                        {
                            "id": "undefined|Weather|1", 
                            "name": "Weather", 
                            "remove": true
                        }
                    ], 
                    "name": "Texas", 
                    "zoom": {
                        "lat": 32.96849685, 
                        "lon": -97.36203531, 
                        "zoom": 57.10963016
                    }
                }, 
                {
                    "fluoros": [], 
                    "name": "Dallas", 
                    "zoom": {
                        "lat": 32.72201298, 
                        "lon": -96.72153359, 
                        "zoom": 854.22730912
                    }
                }, 
                {
                    "fluoros": [], 
                    "name": "Neighborhood", 
                    "zoom": {
                        "lat": 32.7126019, 
                        "lon": -96.68481583, 
                        "zoom": 13727.05122354
                    }
                }
            ], 
            "time": {
                "bounds": {
                    "loop": 0, 
                    "max": null, 
                    "min": null
                }, 
                "display": {
                    "feld": "main", 
                    "loc": [
                        -0.5, 
                        0.5
                    ], 
                    "visible": false
                }
            }, 
            "zoom": {
                "lat": 40.69323549, 
                "lon": -98.98869102, 
                "zoom": 7.94613582
            }
        }, 
        {
            "fluoros": [], 
            "name": "East Coast", 
            "scenes": [
                {
                    "fluoros": [], 
                    "name": "New Jersey", 
                    "zoom": {
                        "lat": 40.57012516, 
                        "lon": -74.37639125, 
                        "zoom": 981.54145859
                    }
                }, 
                {
                    "fluoros": [], 
                    "name": "neighborhood", 
                    "zoom": {
                        "lat": 40.52280331, 
                        "lon": -74.27417826, 
                        "zoom": 19752.8074621
                    }
                }
            ], 
            "zoom": {
                "lat": 40.490977550000004, 
                "lon": -74.99357311, 
                "zoom": 130.26967188
            }
        }
    ], 
    "geocode": {}, 
    "name": "Show Runner"
}